{
    "machines/faces/true/true/clouds_22.jpg": {
        "detections": {
            "Labels": [
                {
                    "Name": "Tier",
                    "Confidence": 100
                },
                {
                    "Name": "Confidence",
                    "Confidence": 99.72466278076172
                },
                {
                    "Name": "Width",
                    "Confidence": 2.0644746720790863
                },
                {
                    "Name": "Height",
                    "Confidence": 4.992125555872917
                },
                {
                    "Name": "Brightness",
                    "Confidence": 86.13383483886719
                },
                {
                    "Name": "Sharpness",
                    "Confidence": 16.49492073059082
                }
            ]
        },
        "redetections": {
            "Labels": []
        }
    },
    "machines/faces/true/true/clouds_23.jpg": {
        "detections": {
            "Labels": [
                {
                    "Name": "Tier",
                    "Confidence": 100
                },
                {
                    "Name": "Confidence",
                    "Confidence": 99.9202880859375
                },
                {
                    "Name": "Width",
                    "Confidence": 6.059547886252403
                },
                {
                    "Name": "Height",
                    "Confidence": 13.374611735343933
                },
                {
                    "Name": "Brightness",
                    "Confidence": 48.14503860473633
                },
                {
                    "Name": "Sharpness",
                    "Confidence": 53.330047607421875
                }
            ]
        },
        "redetections": {
            "Labels": []
        }
    },
    "machines/faces/true/true/land_cover_109.jpg": {
        "detections": {
            "Labels": [
                {
                    "Name": "Tier",
                    "Confidence": 0
                },
                {
                    "Name": "Confidence",
                    "Confidence": 90.6690902709961
                },
                {
                    "Name": "Width",
                    "Confidence": 4.558174684643745
                },
                {
                    "Name": "Height",
                    "Confidence": 12.818250060081482
                },
                {
                    "Name": "Brightness",
                    "Confidence": 72.19408416748047
                },
                {
                    "Name": "Sharpness",
                    "Confidence": 60.49041748046875
                }
            ]
        },
        "redetections": {
            "Labels": []
        }
    },
    "machines/faces/true/true/land_cover_110.jpg": {
        "detections": {
            "Labels": [
                {
                    "Name": "Tier",
                    "Confidence": 100
                },
                {
                    "Name": "Confidence",
                    "Confidence": 96.50199127197266
                },
                {
                    "Name": "Width",
                    "Confidence": 4.047837480902672
                },
                {
                    "Name": "Height",
                    "Confidence": 8.546515554189682
                },
                {
                    "Name": "Brightness",
                    "Confidence": 54.12334060668945
                },
                {
                    "Name": "Sharpness",
                    "Confidence": 60.49041748046875
                }
            ]
        },
        "redetections": {
            "Labels": []
        }
    },
    "machines/faces/true/true/land_cover_143.jpg": {
        "detections": {
            "Labels": [
                {
                    "Name": "Tier",
                    "Confidence": 100
                },
                {
                    "Name": "Confidence",
                    "Confidence": 74.8372573852539
                },
                {
                    "Name": "Width",
                    "Confidence": 4.019651561975479
                },
                {
                    "Name": "Height",
                    "Confidence": 8.011830598115921
                },
                {
                    "Name": "Brightness",
                    "Confidence": 36.63962936401367
                },
                {
                    "Name": "Sharpness",
                    "Confidence": 26.1773681640625
                }
            ]
        },
        "redetections": {
            "Labels": []
        }
    },
    "machines/faces/true/true/land_cover_181.jpg": {
        "detections": {
            "Labels": [
                {
                    "Name": "Tier",
                    "Confidence": 100
                },
                {
                    "Name": "Confidence",
                    "Confidence": 88.28948211669922
                },
                {
                    "Name": "Width",
                    "Confidence": 1.2851291336119175
                },
                {
                    "Name": "Height",
                    "Confidence": 2.4509457871317863
                },
                {
                    "Name": "Brightness",
                    "Confidence": 45.24009704589844
                },
                {
                    "Name": "Sharpness",
                    "Confidence": 5.775668621063232
                }
            ]
        },
        "redetections": {
            "Labels": []
        }
    },
    "machines/faces/true/true/land_cover_182.jpg": {
        "detections": {
            "Labels": [
                {
                    "Name": "Tier",
                    "Confidence": 100
                },
                {
                    "Name": "Confidence",
                    "Confidence": 95.44058227539062
                },
                {
                    "Name": "Width",
                    "Confidence": 0.9968793019652367
                },
                {
                    "Name": "Height",
                    "Confidence": 2.3186426609754562
                },
                {
                    "Name": "Brightness",
                    "Confidence": 69.50308990478516
                },
                {
                    "Name": "Sharpness",
                    "Confidence": 38.89601135253906
                }
            ]
        },
        "redetections": {
            "Labels": []
        }
    },
    "machines/faces/true/true/land_cover_206.jpg": {
        "detections": {
            "Labels": [
                {
                    "Name": "Tier",
                    "Confidence": 0
                },
                {
                    "Name": "Confidence",
                    "Confidence": 97.500732421875
                },
                {
                    "Name": "Width",
                    "Confidence": 4.49414849281311
                },
                {
                    "Name": "Height",
                    "Confidence": 7.099904865026474
                },
                {
                    "Name": "Brightness",
                    "Confidence": 20.15926742553711
                },
                {
                    "Name": "Sharpness",
                    "Confidence": 2.485198736190796
                }
            ]
        },
        "redetections": {
            "Labels": []
        }
    },
    "machines/faces/true/true/land_cover_210.jpg": {
        "detections": {
            "Labels": [
                {
                    "Name": "Tier",
                    "Confidence": 100
                },
                {
                    "Name": "Confidence",
                    "Confidence": 96.74225616455078
                },
                {
                    "Name": "Width",
                    "Confidence": 1.1524285189807415
                },
                {
                    "Name": "Height",
                    "Confidence": 2.040194347500801
                },
                {
                    "Name": "Brightness",
                    "Confidence": 32.19178009033203
                },
                {
                    "Name": "Sharpness",
                    "Confidence": 20.927310943603516
                }
            ]
        },
        "redetections": {
            "Labels": []
        }
    },
    "machines/faces/true/true/land_cover_212.jpg": {
        "detections": {
            "Labels": [
                {
                    "Name": "Tier",
                    "Confidence": 100
                },
                {
                    "Name": "Confidence",
                    "Confidence": 94.37004089355469
                },
                {
                    "Name": "Width",
                    "Confidence": 1.3199983164668083
                },
                {
                    "Name": "Height",
                    "Confidence": 2.257479354739189
                },
                {
                    "Name": "Brightness",
                    "Confidence": 70.80760955810547
                },
                {
                    "Name": "Sharpness",
                    "Confidence": 26.1773681640625
                }
            ]
        },
        "redetections": {
            "Labels": []
        }
    },
    "machines/faces/true/true/land_cover_226.jpg": {
        "detections": {
            "Labels": [
                {
                    "Name": "Tier",
                    "Confidence": 100
                },
                {
                    "Name": "Confidence",
                    "Confidence": 99.99464416503906
                },
                {
                    "Name": "Width",
                    "Confidence": 5.605215951800346
                },
                {
                    "Name": "Height",
                    "Confidence": 12.135636806488037
                },
                {
                    "Name": "Brightness",
                    "Confidence": 49.078922271728516
                },
                {
                    "Name": "Sharpness",
                    "Confidence": 46.02980041503906
                }
            ]
        },
        "redetections": {
            "Labels": []
        }
    },
    "machines/faces/true/true/land_cover_232.jpg": {
        "detections": {
            "Labels": [
                {
                    "Name": "Tier",
                    "Confidence": 100
                },
                {
                    "Name": "Confidence",
                    "Confidence": 76.27684783935547
                },
                {
                    "Name": "Width",
                    "Confidence": 0.9881817735731602
                },
                {
                    "Name": "Height",
                    "Confidence": 1.6828542575240135
                },
                {
                    "Name": "Brightness",
                    "Confidence": 95.13359832763672
                },
                {
                    "Name": "Sharpness",
                    "Confidence": 2.485198736190796
                }
            ]
        },
        "redetections": {
            "Labels": []
        }
    },
    "machines/faces/true/true/land_cover_268.jpg": {
        "detections": {
            "Labels": [
                {
                    "Name": "Tier",
                    "Confidence": 0
                },
                {
                    "Name": "Confidence",
                    "Confidence": 81.90885162353516
                },
                {
                    "Name": "Width",
                    "Confidence": 2.5172075256705284
                },
                {
                    "Name": "Height",
                    "Confidence": 8.51726084947586
                },
                {
                    "Name": "Brightness",
                    "Confidence": 51.63582992553711
                },
                {
                    "Name": "Sharpness",
                    "Confidence": 16.49492073059082
                }
            ]
        },
        "redetections": {
            "Labels": []
        }
    },
    "machines/faces/true/true/land_cover_290.jpg": {
        "detections": {
            "Labels": [
                {
                    "Name": "Tier",
                    "Confidence": 100
                },
                {
                    "Name": "Confidence",
                    "Confidence": 99.98694610595703
                },
                {
                    "Name": "Width",
                    "Confidence": 3.3242516219615936
                },
                {
                    "Name": "Height",
                    "Confidence": 5.99421001970768
                },
                {
                    "Name": "Brightness",
                    "Confidence": 92.30216979980469
                },
                {
                    "Name": "Sharpness",
                    "Confidence": 73.32209777832031
                }
            ]
        },
        "redetections": {
            "Labels": []
        }
    },
    "machines/faces/true/true/land_cover_423.jpg": {
        "detections": {
            "Labels": [
                {
                    "Name": "Tier",
                    "Confidence": 100
                },
                {
                    "Name": "Confidence",
                    "Confidence": 76.83679962158203
                },
                {
                    "Name": "Width",
                    "Confidence": 2.021772600710392
                },
                {
                    "Name": "Height",
                    "Confidence": 3.1113650649785995
                },
                {
                    "Name": "Brightness",
                    "Confidence": 47.06759262084961
                },
                {
                    "Name": "Sharpness",
                    "Confidence": 78.64350128173828
                }
            ]
        },
        "redetections": {
            "Labels": []
        }
    },
    "machines/faces/true/true/land_cover_431.jpg": {
        "detections": {
            "Labels": [
                {
                    "Name": "Tier",
                    "Confidence": 100
                },
                {
                    "Name": "Confidence",
                    "Confidence": 99.85263061523438
                },
                {
                    "Name": "Width",
                    "Confidence": 67.8307831287384
                },
                {
                    "Name": "Height",
                    "Confidence": 75.71794986724854
                },
                {
                    "Name": "Brightness",
                    "Confidence": 38.27019119262695
                },
                {
                    "Name": "Sharpness",
                    "Confidence": 53.330047607421875
                }
            ]
        },
        "redetections": {
            "Labels": []
        }
    },
    "machines/faces/true/true/land_cover_437.jpg": {
        "detections": {
            "Labels": [
                {
                    "Name": "Tier",
                    "Confidence": 0
                },
                {
                    "Name": "Confidence",
                    "Confidence": 99.86458587646484
                },
                {
                    "Name": "Width",
                    "Confidence": 2.814474143087864
                },
                {
                    "Name": "Height",
                    "Confidence": 8.0423042178154
                },
                {
                    "Name": "Brightness",
                    "Confidence": 77.81293487548828
                },
                {
                    "Name": "Sharpness",
                    "Confidence": 12.848764419555664
                }
            ]
        },
        "redetections": {
            "Labels": []
        }
    },
    "machines/faces/true/true/land_cover_55.jpg": {
        "detections": {
            "Labels": [
                {
                    "Name": "Tier",
                    "Confidence": 100
                },
                {
                    "Name": "Confidence",
                    "Confidence": 90.5004653930664
                },
                {
                    "Name": "Width",
                    "Confidence": 9.52945351600647
                },
                {
                    "Name": "Height",
                    "Confidence": 5.327827483415604
                },
                {
                    "Name": "Brightness",
                    "Confidence": 39.618465423583984
                },
                {
                    "Name": "Sharpness",
                    "Confidence": 38.89601135253906
                }
            ]
        },
        "redetections": {
            "Labels": []
        }
    },
    "machines/faces/true/true/lands_282.jpg": {
        "detections": {
            "Labels": [
                {
                    "Name": "Tier",
                    "Confidence": 0
                },
                {
                    "Name": "Confidence",
                    "Confidence": 75.93660736083984
                },
                {
                    "Name": "Width",
                    "Confidence": 0.45942384749650955
                },
                {
                    "Name": "Height",
                    "Confidence": 0.7929769344627857
                },
                {
                    "Name": "Brightness",
                    "Confidence": 48.402740478515625
                },
                {
                    "Name": "Sharpness",
                    "Confidence": 2.485198736190796
                }
            ]
        },
        "redetections": {
            "Labels": []
        }
    },
    "machines/faces/true/true/lands_357.jpg": {
        "detections": {
            "Labels": [
                {
                    "Name": "Tier",
                    "Confidence": 0
                },
                {
                    "Name": "Confidence",
                    "Confidence": 97.31132507324219
                },
                {
                    "Name": "Width",
                    "Confidence": 0.3960530739277601
                },
                {
                    "Name": "Height",
                    "Confidence": 0.4369491711258888
                },
                {
                    "Name": "Brightness",
                    "Confidence": 89.19462585449219
                },
                {
                    "Name": "Sharpness",
                    "Confidence": 3.3018569946289062
                }
            ]
        },
        "redetections": {
            "Labels": []
        }
    },
    "machines/faces/true/true/lands_359.jpg": {
        "detections": {
            "Labels": [
                {
                    "Name": "Tier",
                    "Confidence": 0
                },
                {
                    "Name": "Confidence",
                    "Confidence": 78.64029693603516
                },
                {
                    "Name": "Width",
                    "Confidence": 1.0978485457599163
                },
                {
                    "Name": "Height",
                    "Confidence": 2.286369912326336
                },
                {
                    "Name": "Brightness",
                    "Confidence": 18.18250274658203
                },
                {
                    "Name": "Sharpness",
                    "Confidence": 9.912903785705566
                }
            ]
        },
        "redetections": {
            "Labels": []
        }
    },
    "machines/faces/true/true/lands_367.jpg": {
        "detections": {
            "Labels": [
                {
                    "Name": "Tier",
                    "Confidence": 100
                },
                {
                    "Name": "Confidence",
                    "Confidence": 93.00118255615234
                },
                {
                    "Name": "Width",
                    "Confidence": 0.9712615050375462
                },
                {
                    "Name": "Height",
                    "Confidence": 1.692885346710682
                },
                {
                    "Name": "Brightness",
                    "Confidence": 45.598297119140625
                },
                {
                    "Name": "Sharpness",
                    "Confidence": 26.1773681640625
                }
            ]
        },
        "redetections": {
            "Labels": []
        }
    },
    "machines/faces/true/true/lands_449.jpg": {
        "detections": {
            "Labels": [
                {
                    "Name": "Tier",
                    "Confidence": 0
                },
                {
                    "Name": "Confidence",
                    "Confidence": 99.80805969238281
                },
                {
                    "Name": "Width",
                    "Confidence": 0.9409303776919842
                },
                {
                    "Name": "Height",
                    "Confidence": 1.7370643094182014
                },
                {
                    "Name": "Brightness",
                    "Confidence": 63.24003219604492
                },
                {
                    "Name": "Sharpness",
                    "Confidence": 3.3018569946289062
                }
            ]
        },
        "redetections": {
            "Labels": []
        }
    },
    "machines/faces/true/true/lands_491.jpg": {
        "detections": {
            "Labels": [
                {
                    "Name": "Tier",
                    "Confidence": 0
                },
                {
                    "Name": "Confidence",
                    "Confidence": 83.70883178710938
                },
                {
                    "Name": "Width",
                    "Confidence": 0.5278381519019604
                },
                {
                    "Name": "Height",
                    "Confidence": 0.7108520716428757
                },
                {
                    "Name": "Brightness",
                    "Confidence": 42.97163009643555
                },
                {
                    "Name": "Sharpness",
                    "Confidence": 2.485198736190796
                }
            ]
        },
        "redetections": {
            "Labels": []
        }
    },
    "machines/faces/true/true/lands_519.jpg": {
        "detections": {
            "Labels": [
                {
                    "Name": "Tier",
                    "Confidence": 0
                },
                {
                    "Name": "Confidence",
                    "Confidence": 97.02830505371094
                },
                {
                    "Name": "Width",
                    "Confidence": 0.47136377543210983
                },
                {
                    "Name": "Height",
                    "Confidence": 0.919600110501051
                },
                {
                    "Name": "Brightness",
                    "Confidence": 51.055843353271484
                },
                {
                    "Name": "Sharpness",
                    "Confidence": 7.589449882507324
                }
            ]
        },
        "redetections": {
            "Labels": []
        }
    },
    "machines/faces/true/true/lands_524.jpg": {
        "detections": {
            "Labels": [
                {
                    "Name": "Tier",
                    "Confidence": 0
                },
                {
                    "Name": "Confidence",
                    "Confidence": 96.84457397460938
                },
                {
                    "Name": "Width",
                    "Confidence": 0.44596861116588116
                },
                {
                    "Name": "Height",
                    "Confidence": 0.8458709344267845
                },
                {
                    "Name": "Brightness",
                    "Confidence": 37.018821716308594
                },
                {
                    "Name": "Sharpness",
                    "Confidence": 1.399810552597046
                }
            ]
        },
        "redetections": {
            "Labels": []
        }
    },
    "machines/faces/true/true/lands_525.jpg": {
        "detections": {
            "Labels": [
                {
                    "Name": "Tier",
                    "Confidence": 0
                },
                {
                    "Name": "Confidence",
                    "Confidence": 81.7609634399414
                },
                {
                    "Name": "Width",
                    "Confidence": 0.6723813712596893
                },
                {
                    "Name": "Height",
                    "Confidence": 1.20069719851017
                },
                {
                    "Name": "Brightness",
                    "Confidence": 49.46382522583008
                },
                {
                    "Name": "Sharpness",
                    "Confidence": 4.3748369216918945
                }
            ]
        },
        "redetections": {
            "Labels": []
        }
    },
    "machines/faces/true/true/lands_557.jpg": {
        "detections": {
            "Labels": [
                {
                    "Name": "Tier",
                    "Confidence": 0
                },
                {
                    "Name": "Confidence",
                    "Confidence": 72.74166107177734
                },
                {
                    "Name": "Width",
                    "Confidence": 0.34606780391186476
                },
                {
                    "Name": "Height",
                    "Confidence": 0.5539652425795794
                },
                {
                    "Name": "Brightness",
                    "Confidence": 28.95306396484375
                },
                {
                    "Name": "Sharpness",
                    "Confidence": 1.399810552597046
                }
            ]
        },
        "redetections": {
            "Labels": []
        }
    }
}